(module RF_SREW_HOLE_2.5mm (layer F.Cu) (tedit 5EAFADB1)
  (fp_text reference REF** (at 0 3.81) (layer F.SilkS) hide
    (effects (font (size 1 1) (thickness 0.15)))
  )
  (fp_text value RF_SREW_HOLE_2.5mm (at 0 -3.81) (layer F.Fab)
    (effects (font (size 1 1) (thickness 0.15)))
  )
  (pad 1 thru_hole circle (at 0 0) (size 5 5) (drill 2.65) (layers *.Cu *.Mask))
)
